…
> nameEx("queryAdverseEvents")
> ### * queryAdverseEvents
> 
> flush(stderr()); flush(stdout())
> 
> base::assign(".ptime", proc.time(), pos = "CheckExEnv")
> ### Name: queryAdverseEvents
> ### Title: Allow users to query Open FDA Drug Adverse Events
> ### Aliases: queryAdverseEvents
> 
> ### ** Examples
> 
> queryAdverseEvents(limit = 101)
Joining, by = c("id", "sex", "age")
# A tibble: 887 x 7
   id       sex   age   drug             drug_indication date       reaction    
   <chr>    <chr> <chr> <chr>            <chr>           <date>     <chr>       
 1 4322505… 1     56    OROKEN (CEFIXIM… PYELONEPHRITIS  2004-03-19 ARTHRALGIA  
 2 4322505… 1     56    OROKEN (CEFIXIM… PYELONEPHRITIS  2004-03-19 OEDEMA PERI…
 3 4322505… 1     56    OROKEN (CEFIXIM… PYELONEPHRITIS  2004-03-19 PURPURA     
 4 4322505… 1     56    PYOSTACINE (PRI… unknown         2004-03-19 ARTHRALGIA  
 5 4322505… 1     56    PYOSTACINE (PRI… unknown         2004-03-19 OEDEMA PERI…
 6 4322505… 1     56    PYOSTACINE (PRI… unknown         2004-03-19 PURPURA     
 7 4322505… 1     56    ROCEPHIN         unknown         2004-03-19 ARTHRALGIA  
 8 4322505… 1     56    ROCEPHIN         unknown         2004-03-19 OEDEMA PERI…
 9 4322505… 1     56    ROCEPHIN         unknown         2004-03-19 PURPURA     
10 4322505… 1     56    OFLOXACIN        unknown         2004-03-19 ARTHRALGIA  
# … with 877 more rows
> queryAdverseEvents(limit=10, date_start="20050101", date_end="20060101")
Joining, by = c("id", "sex", "age")
# A tibble: 675 x 7
   id       sex   age   drug       drug_indication    date       reaction       
   <chr>    <chr> <chr> <chr>      <chr>              <date>     <chr>          
 1 4598678… 2     29    IMODIUM    unknown            2005-03-04 INTESTINAL PER…
 2 4598678… 2     29    IMODIUM    unknown            2005-03-04 PERITONITIS    
 3 4598678… 2     29    ANTIBIOTI… unknown            2005-03-04 INTESTINAL PER…
 4 4598678… 2     29    ANTIBIOTI… unknown            2005-03-04 PERITONITIS    
 5 4635714… 2     42    ZOLADEX    BREAST CANCER      2005-04-14 CATARACT       
 6 4635714… 2     42    ZOLADEX    BREAST CANCER      2005-04-14 VISUAL ACUITY …
 7 4607644… 1     73    CORGARD    ANGINA PECTORIS    2005-03-14 ANGIONEUROTIC …
 8 4607644… 1     73    OMEPRAZOLE unknown            2005-03-14 ANGIONEUROTIC …
 9 4607644… 1     73    ZESTRIL    MYOCARDIAL INFARC… 2005-03-14 ANGIONEUROTIC …
10 4607644… 1     73    ASPEGIC 3… unknown            2005-03-14 ANGIONEUROTIC …
# … with 665 more rows
…
