Report
…
If a user is interested in looking at adverse events for a specific date they could:

Querying OpenFDA

queryOpenFDA(limit) will query the drug adverse events database and return the number of results as set by limit within a non-tidy dataframe. See ?queryOpenFDA for more details. Optional paremters include querying for a specific date range, or recall events rather than adverse events.

queryAdverseEvents(limit) Will return a tidy dataframe with drug and adverse information for the number of results desired. Columns include: id, sex, age, drug, drug indication, date and reaction.

drugs_and_events <- queryAdverseEvents(limit = 100)

## Joining, by = c("id", "sex", "age")

drugs_and_events

## # A tibble: 885 x 7
##    id      sex   age   drug          drug_indication date       reaction   
##    <chr>   <chr> <chr> <chr>         <chr>           <date>     <chr>      
##  1 432250… 1     56    OROKEN (CEFI… PYELONEPHRITIS  2004-03-19 ARTHRALGIA 
##  2 432250… 1     56    OROKEN (CEFI… PYELONEPHRITIS  2004-03-19 OEDEMA PER…
##  3 432250… 1     56    OROKEN (CEFI… PYELONEPHRITIS  2004-03-19 PURPURA    
##  4 432250… 1     56    PYOSTACINE (… unknown         2004-03-19 ARTHRALGIA 
##  5 432250… 1     56    PYOSTACINE (… unknown         2004-03-19 OEDEMA PER…
##  6 432250… 1     56    PYOSTACINE (… unknown         2004-03-19 PURPURA    
##  7 432250… 1     56    ROCEPHIN      unknown         2004-03-19 ARTHRALGIA 
##  8 432250… 1     56    ROCEPHIN      unknown         2004-03-19 OEDEMA PER…
##  9 432250… 1     56    ROCEPHIN      unknown         2004-03-19 PURPURA    
## 10 432250… 1     56    OFLOXACIN     unknown         2004-03-19 ARTHRALGIA 
## # … with 875 more rows
…
